<svg width="20" height="16" viewBox="0 0 20 16" fill="none" xmlns="http://www.w3.org/2000/svg">
<path d="M7.3863 15.7142C6.57222 15.7142 5.7343 15.6482 4.89134 15.5159C3.40666 15.2826 1.90374 14.5049 1.47845 14.2721L0.363037 13.6614L1.57066 13.2638C2.89075 12.8291 3.69377 12.5595 4.68782 12.1372C3.69248 11.6545 2.92536 10.7863 2.55609 9.66387L2.27516 8.80985L2.50554 8.84509C2.28708 8.62461 2.11458 8.40082 1.98086 8.19731C1.50531 7.47403 1.25353 6.59024 1.3071 5.83286L1.35996 5.08743L1.80564 5.26031C1.61763 4.90478 1.48176 4.52508 1.4019 4.12713C1.20728 3.15661 1.37016 2.12555 1.86065 1.22392L2.24887 0.510274L2.76809 1.13475C4.41019 3.11001 6.49007 4.28174 8.9586 4.62475C8.85777 3.9288 8.93332 3.25714 9.18338 2.6551C9.47451 1.95411 9.99244 1.35969 10.6807 0.935989C11.4451 0.465545 12.3721 0.237586 13.2909 0.294109C14.2657 0.354083 15.1507 0.719824 15.8536 1.3525C16.1969 1.26319 16.4498 1.16783 16.7916 1.03897C16.9973 0.961446 17.2306 0.873427 17.5224 0.772751L18.5979 0.401688L17.8966 2.40744C17.9428 2.40356 17.9905 2.40025 18.0403 2.39809L19.1888 2.34603L18.51 3.27498C18.4711 3.32819 18.4612 3.34329 18.4474 3.36415C18.3927 3.4467 18.3246 3.54939 17.3929 4.79518C17.1596 5.10714 17.0431 5.51343 17.0648 5.93944C17.1474 7.55831 16.9491 9.023 16.4749 10.2927C16.0265 11.4939 15.3317 12.5245 14.4099 13.3559C13.2692 14.3846 11.8146 15.0889 10.0865 15.449C9.23882 15.6256 8.32851 15.7142 7.3863 15.7142Z" fill="white"/>
</svg>
